…
Filtering

We have a fairly big data set. What if we want to focus on certain records? For example, lets say Im only interested in Chilean wine. I can use the filter() function to only look at wines with Chile as their country of origin.

filter(reviews, country == "Chile")

## # A tibble: 194 x 10
##    country description    designation points price province region_1 title
##    <chr>   <chr>          <chr>        <int> <int> <chr>    <chr>    <chr>
##  1 Chile   White flower, Estate          86    15 Colchag <NA>     Esta
##  2 Chile   A berry aroma <NA>            86     9 Maule V <NA>     Sund
##  3 Chile   This is much  Gran Reser     85    22 Colchag <NA>     Casa
##  4 Chile   Lightly herba Reserve         85    13 Maipo V <NA>     Tres
##  5 Chile   Caramelized o Special Re     86    12 Rapel V <NA>     Ares
##  6 Chile   A bright nose Single Vin     87    18 Leyda V <NA>     Leyd
##  7 Chile   This blend of Condesa Re     91    29 Aconcag <NA>     Cond
##  8 Chile   Dry, briary a 20 Barrels      91    32 Maipo V <NA>     Cono
##  9 Chile   Dry, spicy ar The 7th Ge     91    20 Loncomi <NA>     G7 2
## 10 Chile   Haven't seen  Unusual Ca     88    50 Maipo V <NA>     Terr
## # ... with 184 more rows, and 2 more variables: variety <chr>,
## #   winery <chr>
…
age = 52
Assign the value 52 to a variable called age.

data <- survey_results
Assign the contents of the object called survey_results to an object called data.

Reordering Data (arrange)

Lets arrange the rows of our data frame in a way thats more informative. This time, well just take a look at the results in our console rather than assigning them to an object.

First, I want to know which wines in my Chilean data set get the highest number of review points. The arrange() function allows us to reorder our data by a particular variable. Below, well reorder by points.

arrange(chilean, points)

## # A tibble: 154 x 10
##    country description    designation points price province region_1 title
##    <chr>   <chr>          <chr>        <int> <int> <chr>    <chr>    <chr>
##  1 Chile   Aromas of pum Gran Reser     80    19 Leyda V <NA>     Via
##  2 Chile   Fluffy, sweet Reserve         80    15 Maule V <NA>     Cuev
##  3 Chile   Jumpy on the  Grand Rese     81    20 Rapel V <NA>     Pura
##  4 Chile   Crisp but bla <NA>            81    14 Maipo V <NA>     Cous
##  5 Chile   Flat aromas o Reserva Ca     81    12 Maule V <NA>     Ovej
##  6 Chile   Funky and odd <NA>            81    10 Central <NA>     Arau
##  7 Chile   Rubbery, mulc <NA>            81    10 Cachapo <NA>     Corn
##  8 Chile   This is edgy  Albamar         81    13 Casabla <NA>     Will
##  9 Chile   Smells vegeta Seleccin       82    15 Maipo V <NA>     Via
## 10 Chile   Smells perky, Hacienda A     82    13 Central <NA>     Fran
## # ... with 144 more rows, and 2 more variables: variety <chr>,
## #   winery <chr>

Well, that sort of worked. My wines are reordered by points, but in ascending order. To reorder them in descending order, we need to use another function inside the arrange function. As you learned last week, this is called a nested function.

arrange(chilean, desc(points))

## # A tibble: 154 x 10
##    country description    designation points price province region_1 title
##    <chr>   <chr>          <chr>        <int> <int> <chr>    <chr>    <chr>
##  1 Chile   Dry, spicy ar The 7th Ge     91    20 Loncomi <NA>     G7 2
##  2 Chile   Composed berr Gran Reser     90    15 Colchag <NA>     Carm
##  3 Chile   Over the past 1865 Singl     90    19 Leyda V <NA>     San 
##  4 Chile   Toasty and va Gran Reser     89    18 Maipo V <NA>     Tara
##  5 Chile   This dry-farm Mariposa E     89    20 Loncomi <NA>     Gill
##  6 Chile   Composed and  Envero Gra     88    15 Colchag <NA>     Apal
##  7 Chile   Bisquertt usu Casa La Jo     88    11 Colchag <NA>     Via
##  8 Chile   Aromas of min Reserva de     88    10 Maipo V <NA>     De M
##  9 Chile   At first this Estate Bot     88    12 Rapel V <NA>     Lapo
## 10 Chile   With its herb Estate Gro     88    15 Maipo V <NA>     Carm
## # ... with 144 more rows, and 2 more variables: variety <chr>,
## #   winery <chr>

Now we can see which wines have the highest number of points. But what if we want to reorder by multiple variables? For example, many wines with the same number of points have different prices. What if we wanted to reorder those wines by price as well, so we can see which wines have the highest reviews with the lowest prices? The arrange() function allows us to add multiple variables simply by using commas.

arrange(chilean, desc(points), price)

## # A tibble: 154 x 10
##    country description    designation points price province region_1 title
##    <chr>   <chr>          <chr>        <int> <int> <chr>    <chr>    <chr>
##  1 Chile   Dry, spicy ar The 7th Ge     91    20 Loncomi <NA>     G7 2
##  2 Chile   Composed berr Gran Reser     90    15 Colchag <NA>     Carm
##  3 Chile   Over the past 1865 Singl     90    19 Leyda V <NA>     San 
##  4 Chile   Toasty and va Gran Reser     89    18 Maipo V <NA>     Tara
##  5 Chile   This dry-farm Mariposa E     89    20 Loncomi <NA>     Gill
##  6 Chile   Aromas of min Reserva de     88    10 Maipo V <NA>     De M
##  7 Chile   Dark berry ar <NA>            88    10 Central <NA>     Msc
##  8 Chile   Bisquertt usu Casa La Jo     88    11 Colchag <NA>     Via
##  9 Chile   At first this Estate Bot     88    12 Rapel V <NA>     Lapo
## 10 Chile   Right off the Reserve         88    12 Maipo V <NA>     Casa
## # ... with 144 more rows, and 2 more variables: variety <chr>,
## #   winery <chr>

Selecting Data

Most real world data sets we want to use in our research are going to be messy, and well need to go through a process of cleaning the data before we can start to explore and analyze it. The first steps in many data cleaning processes involve removing data that we dont need.

Going back to our original reviews data frame, lets imagine we are only interested in the country, province and variety of our wines. We could create a new object called wine_types using the select() function. Well also preview our new object by simply typing its name and running the script.

wine_types <- select(reviews, country, province, variety)
wine_types

## # A tibble: 5,000 x 3
##    country  province          variety           
##    <chr>    <chr>             <chr>             
##  1 Italy    Sicily & Sardinia White Blend       
##  2 Portugal Douro             Portuguese Red    
##  3 US       Oregon            Pinot Gris        
##  4 US       Michigan          Riesling          
##  5 US       Oregon            Pinot Noir        
##  6 Spain    Northern Spain    Tempranillo-Merlot
##  7 Italy    Sicily & Sardinia Frappato          
##  8 France   Alsace            Gewrztraminer    
##  9 Germany  Rheinhessen       Gewrztraminer    
## 10 France   Alsace            Pinot Gris        
## # ... with 4,990 more rows

But what if we have a lot of columns in our dataset and only need to remove one or two? Look at our chilean data frame again.

chilean

## # A tibble: 154 x 10
##    country description    designation points price province region_1 title
##    <chr>   <chr>          <chr>        <int> <int> <chr>    <chr>    <chr>
##  1 Chile   White flower, Estate          86    15 Colchag <NA>     Esta
##  2 Chile   A berry aroma <NA>            86     9 Maule V <NA>     Sund
##  3 Chile   Lightly herba Reserve         85    13 Maipo V <NA>     Tres
##  4 Chile   Caramelized o Special Re     86    12 Rapel V <NA>     Ares
##  5 Chile   A bright nose Single Vin     87    18 Leyda V <NA>     Leyd
##  6 Chile   Dry, spicy ar The 7th Ge     91    20 Loncomi <NA>     G7 2
##  7 Chile   Composed and  Envero Gra     88    15 Colchag <NA>     Apal
##  8 Chile   Bisquertt usu Casa La Jo     88    11 Colchag <NA>     Via
##  9 Chile   Clean and hon Natura          87    11 Casabla <NA>     Emil
## 10 Chile   Rooty and lea Grey [Glac     87    20 Maipo V <NA>     Vent
## # ... with 144 more rows, and 2 more variables: variety <chr>,
## #   winery <chr>

Youll notice it has two columns which are no longer useful for us. The country column is the same for every row, and the region_1 column is missing data in every row. Lets remove those columns using select(). This time, well use another nested function.

chilean <- select(chilean, -c(country, region_1))
chilean

## # A tibble: 154 x 8
##    description     designation  points price province title variety winery
##    <chr>           <chr>         <int> <int> <chr>    <chr> <chr>   <chr> 
##  1 White flower,  Estate           86    15 Colchag Esta Viogni Estam
##  2 A berry aroma  <NA>             86     9 Maule V Sund Merlot  Sunda
##  3 Lightly herbal Reserve          85    13 Maipo V Tres Pinot  Tres 
##  4 Caramelized oa Special Rel     86    12 Rapel V Ares Carmen Aresti
##  5 A bright nose  Single Vine     87    18 Leyda V Leyd Chardo Leyda 
##  6 Dry, spicy aro The 7th Gen     91    20 Loncomi G7 2 Cabern G7    
##  7 Composed and s Envero Gran     88    15 Colchag Apal Carmen Apalt
##  8 Bisquertt usua Casa La Joy     88    11 Colchag Via Merlot  Via 
##  9 Clean and hone Natura           87    11 Casabla Emil Chardo Emili
## 10 Rooty and leaf Grey [Glaci     87    20 Maipo V Vent Cabern Venti
## # ... with 144 more rows

We use the c() function to combine elements and the - sign to indicate that we want those elements to be removed.

Sometimes, well need to keep or remove a series of columns that are directly adjacent to each other in the data frame. In those circumstances, we can use the following syntax:

# Keep columns "title" through "winery"
select(reviews, title:winery)

## # A tibble: 5,000 x 3
##    title                                        variety       winery      
##    <chr>                                        <chr>         <chr>       
##  1 Nicosia 2013 Vulk Bianco  (Etna)            White Blend   Nicosia     
##  2 Quinta dos Avidagos 2011 Avidagos Red (Dour Portuguese R Quinta dos 
##  3 Rainstorm 2013 Pinot Gris (Willamette Valle Pinot Gris    Rainstorm   
##  4 St. Julian 2013 Reserve Late Harvest Riesli Riesling      St. Julian  
##  5 Sweet Cheeks 2012 Vintner's Reserve Wild Ch Pinot Noir    Sweet Cheeks
##  6 Tandem 2011 Ars In Vitro Tempranillo-Merlot Tempranillo- Tandem      
##  7 Terre di Giurfo 2013 Belsito Frappato (Vitt Frappato      Terre di Gi
##  8 Trimbach 2012 Gewurztraminer (Alsace)        Gewrztramin Trimbach    
##  9 Heinz Eifel 2013 Shine Gewrztraminer (Rhei Gewrztramin Heinz Eifel 
## 10 Jean-Baptiste Adam 2012 Les Natures Pinot G Pinot Gris    Jean-Baptis
## # ... with 4,990 more rows

# Remove columns "title" through "winery"
select(reviews, -c(title:winery))

## # A tibble: 5,000 x 7
##    country  description        designation  points price province region_1
##    <chr>    <chr>              <chr>         <int> <int> <chr>    <chr>   
##  1 Italy    Aromas include tr Vulk Bianco     87    NA Sicily  Etna    
##  2 Portugal This is ripe and  Avidagos         87    15 Douro    <NA>    
##  3 US       Tart and snappy,  <NA>             87    14 Oregon   Willame
##  4 US       Pineapple rind, l Reserve Lat     87    13 Michigan Lake Mi
##  5 US       Much like the reg Vintner's R     87    65 Oregon   Willame
##  6 Spain    Blackberry and ra Ars In Vitro     87    15 Norther Navarra 
##  7 Italy    Here's a bright,  Belsito          87    16 Sicily  Vittoria
##  8 France   This dry and rest <NA>             87    24 Alsace   Alsace  
##  9 Germany  Savory dried thym Shine            87    12 Rheinhe <NA>    
## 10 France   This has great de Les Natures      87    27 Alsace   Alsace  
## # ... with 4,990 more rows

In both cases the : symbol means through and allows us to select a series of columns at once.

Renaming Columns

Renaming our columns is easy to do when we use the rename() function. We need to provide the new name we want to use first, and then assign the old name to it.

chilean <- rename(chilean, review_points = points)
chilean

## # A tibble: 154 x 8
##    description     designation  review_points price province title variety
##    <chr>           <chr>                <int> <int> <chr>    <chr> <chr>  
##  1 White flower,  Estate                  86    15 Colchag Esta Viogni
##  2 A berry aroma  <NA>                    86     9 Maule V Sund Merlot 
##  3 Lightly herbal Reserve                 85    13 Maipo V Tres Pinot 
##  4 Caramelized oa Special Rel            86    12 Rapel V Ares Carmen
##  5 A bright nose  Single Vine            87    18 Leyda V Leyd Chardo
##  6 Dry, spicy aro The 7th Gen            91    20 Loncomi G7 2 Cabern
##  7 Composed and s Envero Gran            88    15 Colchag Apal Carmen
##  8 Bisquertt usua Casa La Joy            88    11 Colchag Via Merlot 
##  9 Clean and hone Natura                  87    11 Casabla Emil Chardo
## 10 Rooty and leaf Grey [Glaci            87    20 Maipo V Vent Cabern
## # ... with 144 more rows, and 1 more variable: winery <chr>
…
chilean <- mutate(chilean, EUR = price * 0.85)

Now Im going to make several more changes to my data set.

# Rename the "price" column to "USD"
chilean <- rename(chilean, USD = price)

# Reorder the columns so that "USD" and "EUR" are adjacent
chilean <- select(chilean, description:review_points, USD, EUR, province:winery)

#Preview the results
chilean

## # A tibble: 154 x 9
##    description       designation review_points   USD   EUR province title 
##    <chr>             <chr>               <int> <int> <dbl> <chr>    <chr> 
##  1 White flower, ly Estate                 86    15 12.8  Colchag Estam
##  2 A berry aroma co <NA>                   86     9  7.65 Maule V Sunda
##  3 Lightly herbal s Reserve                85    13 11.0  Maipo V Tres 
##  4 Caramelized oak  Special Re            86    12 10.2  Rapel V Arest
##  5 A bright nose wi Single Vin            87    18 15.3  Leyda V Leyda
##  6 Dry, spicy aroma The 7th Ge            91    20 17.0  Loncomi G7 20
##  7 Composed and str Envero Gra            88    15 12.8  Colchag Apalt
##  8 Bisquertt usuall Casa La Jo            88    11  9.35 Colchag Via 
##  9 Clean and honest Natura                 87    11  9.35 Casabla Emili
## 10 Rooty and leafy  Grey [Glac            87    20 17.0  Maipo V Venti
## # ... with 144 more rows, and 2 more variables: variety <chr>,
## #   winery <chr>
…
Not only do the pipes prevent us from having to create lots of objects, they also allow us to arrange the code in a way that is easier to read. Notice that we also only needed to name our object once, at the beginning of the sequence, for it to be used in every function onward.

Lets try another sequence of functions using the pipe to answer the following question: What is the highest price for each variety of wine in each province?

chilean %>%
  group_by(province, variety) %>%
  summarise (max_price = max(USD, na.rm = TRUE)) %>%
  arrange(province, variety, desc(max_price))

## # A tibble: 78 x 3
## # Groups:   province [20]
##    province          variety                   max_price
##    <chr>             <chr>                         <dbl>
##  1 Aconcagua Costa   Chardonnay                      20.
##  2 Aconcagua Valley  Cabernet Sauvignon              19.
##  3 Aconcagua Valley  Sauvignon Blanc                 19.
##  4 Cachapoal Valley  Cabernet Sauvignon              18.
##  5 Cachapoal Valley  Cabernet Sauvignon-Merlot       10.
##  6 Cachapoal Valley  Carmenre                       12.
##  7 Cachapoal Valley  Syrah                           15.
##  8 Casablanca Valley Chardonnay                      15.
##  9 Casablanca Valley Gewrztraminer                  15.
## 10 Casablanca Valley Merlot                          17.
## # ... with 68 more rows
…
